http://salainformatizadajoaogoncalves.blogspot.com
http://fundacaofranklincascaes.blogspot.com
http://espiritodegeometria.blogspot.com
http://focasamadoras.blogspot.com
http://natalidadenobrasil2002.blogspot.com
http://siwebbrasil.blogspot.com
http://grandesacadabrasil.blogspot.com
http://duasestradas-pb.blogspot.com
http://estantedobasper.blogspot.com
http://opiniacao.blogspot.com
http://superbacanatv.blogspot.com
http://vivendoabio.blogspot.com
http://veteranosdadesign.blogspot.com
http://opoetapoetiza.blogspot.com
http://assistirfilmehdtv.blogspot.com
http://pipasbgu.blogspot.com
http://meaning-engagement-pleasure.blogspot.com
http://agrocana-ne.blogspot.com
http://aeducacaodehojeemdia.blogspot.com
http://picadotur.blogspot.com
http://izastudiotattoo.blogspot.com
http://eutococavaco.blogspot.com
http://wwpapopraadolescente.blogspot.com
http://viniciusbeltramin.blogspot.com
http://tudodefutsal.blogspot.com
http://jornalboasemente.blogspot.com
http://euconfessoke.blogspot.com
http://moscasdaserra.blogspot.com
http://namesasambaepoesias.blogspot.com
http://limaeabreusolucoesemrh.blogspot.com
http://pescandonacoes.blogspot.com
http://raicesdobrasil.blogspot.com
http://teardauxa.blogspot.com
http://abrindoziper.blogspot.com
http://jckronbauer.blogspot.com
http://spiritualsdoorvalho.blogspot.com
http://andreakosta.blogspot.com
http://ultrarromantismoboemio.blogspot.com
http://fabricadedinamicas.blogspot.com
http://maisesaude.blogspot.com
http://artesanatoeletronico.blogspot.com
http://youngheartsgocrazy.blogspot.com
http://menteindomavel.blogspot.com
http://gabrielacosentino.blogspot.com
http://portfoliosandromartins.blogspot.com
http://cardernodereceitasizumi.blogspot.com
http://centroestebrasil.blogspot.com
http://idososrecrear.blogspot.com
http://empregopontocom.blogspot.com
http://transparenciama.blogspot.com
http://tbrondonia.blogspot.com
http://duasmordidas.blogspot.com
http://dialeticaliteraria.blogspot.com
http://ermenegildoportland.blogspot.com
http://nettebrock.blogspot.com
http://assentamentodepedras.blogspot.com
http://toninhocartoon.blogspot.com
http://amigasdaedinf0a3aw.blogspot.com
http://enciclopedireito.blogspot.com
http://grupoaugustinus.blogspot.com
http://zac-design.blogspot.com
http://portaldaael.blogspot.com
http://comparatoarq.blogspot.com
http://miilacerda.blogspot.com
http://emdomingosparoibitiuva.blogspot.com
http://flooco.blogspot.com
http://feliceodontologia.blogspot.com
http://evaartescomcarinho.blogspot.com
http://belezaprogressiva.blogspot.com
http://coreanes.blogspot.com
http://felixjtv.blogspot.com
http://evangelizarepreciso-claudeci.blogspot.com
http://consultoreseassociados.blogspot.com
http://humanoesustentavel.blogspot.com
http://preservandoafauna.blogspot.com
http://parabolicaweb.blogspot.com
http://koisasdeviagem.blogspot.com
http://novitazinha.blogspot.com
http://solangeklai.blogspot.com
http://pergunteaorevrubensbraz.blogspot.com
http://fisioexefi2013.blogspot.com
http://ebd-crescimentoespiritual.blogspot.com
http://modablor.blogspot.com
http://lienimoveis.blogspot.com
http://jonirocha.blogspot.com
http://atiliocoelho.blogspot.com
http://escolaalaricojosedelima.blogspot.com
http://essamaesabe.blogspot.com
http://minutoprofetico.blogspot.com
http://thinkpinkfoto.blogspot.com
http://partiturasvia3.blogspot.com
http://tavernadocinefilo.blogspot.com
http://mundodalu-lu.blogspot.com
http://requintemaryhelena.blogspot.com
http://metaconsult.blogspot.com
http://sigaalagoas.blogspot.com
http://pisciculturaecologica.blogspot.com
http://medvetunicentro.blogspot.com
http://maisumende.blogspot.com
http://expressaoliberta.blogspot.com
http://odrtecnologia.blogspot.com
http://gratuitoeonline.blogspot.com
http://ofinanceiroblog.blogspot.com
http://isomorphismos.blogspot.com
http://emilioengel.blogspot.com
http://oficialeusder.blogspot.com
http://pensamentohumanocwb.blogspot.com
http://e-booksdicas.blogspot.com
http://grandestaques.blogspot.com
http://linhadosprodutosforever.blogspot.com
http://corredorculturaldemossor.blogspot.com
http://escolinhadocruzeirotb.blogspot.com
http://visualfestas.blogspot.com
http://andrewernner.blogspot.com
http://saidacuca.blogspot.com
http://teologiatoday.blogspot.com
http://edisonmassoacup.blogspot.com
http://partedomeuar.blogspot.com
http://dostemposdavovozinha.blogspot.com
http://falandodefuteboleuropeu.blogspot.com
http://montessoriefamilia.blogspot.com
http://odontologiasorrisobonito.blogspot.com
http://robertopivavidapoetica.blogspot.com
http://aprenderaaprender20.blogspot.com
http://entreoverdeeoazul.blogspot.com
http://davidhmendes.blogspot.com
http://pataxocartoons.blogspot.com
http://blogdogerardof.blogspot.com
http://betocipolli.blogspot.com
http://leoncioufpr.blogspot.com
http://meunomenaoetakaki.blogspot.com
http://forumdacultura.blogspot.com
http://blogaodahistoria.blogspot.com
http://letraspedacos.blogspot.com
http://romulobaldez.blogspot.com
http://quembeberdestaaguajamastersede.blogspot.com
http://biossegurancanarede.blogspot.com
http://fefafit.blogspot.com
http://geografiaderoraima.blogspot.com
http://mkluppel.blogspot.com
http://prateleiradeimoveis.blogspot.com
http://philiprosa.blogspot.com
http://revistaeletronicadesaomiguel.blogspot.com
http://cerqueiraa.blogspot.com
http://mundopackage.blogspot.com
http://manualdetudoumpouco.blogspot.com
http://escolatm130.blogspot.com
http://armannipublicidadeartesgraficas.blogspot.com
http://futebolecoisaetal.blogspot.com
http://oquesobroudamoda.blogspot.com
http://esporteamadorolimpia.blogspot.com
http://cajazeirasacontece.blogspot.com
http://brasfoot2011joowh.blogspot.com
http://saudeserradomel.blogspot.com
http://aulasjacques.blogspot.com
http://urrodoleaopeniel.blogspot.com
http://dicascriativasonlinemeublog.blogspot.com
http://sociedadessecretaspoliticas.blogspot.com
http://fonoaudiologiamotricidade.blogspot.com
http://saboresesaudes.blogspot.com
http://linguagemcorporaljbg.blogspot.com
http://refletindopontocom.blogspot.com
http://jreisdualibi.blogspot.com
http://corteznaweb.blogspot.com
http://conversacoesliberadoras.blogspot.com
http://acaiasagarana.blogspot.com
http://mylavalle.blogspot.com
http://jaquelinetatianepereira.blogspot.com
http://cronicasespiritualistas.blogspot.com
http://humortolandia.blogspot.com
http://marina-colasanti.blogspot.com
http://shensn.blogspot.com
http://allhintsandtips.blogspot.com
http://joaquimnabucoespirito.blogspot.com
http://nacionalpress.blogspot.com
http://direitosdasfamilias.blogspot.com
http://vailacriticararte.blogspot.com
http://tvculturismobji.blogspot.com
http://quimicaemjogo.blogspot.com
http://butnothingseemstosatisfy.blogspot.com
http://professoradesbravadora.blogspot.com
http://marvelja.blogspot.com
http://pia-da.blogspot.com
http://minhasartespatchworkpatchaplique.blogspot.com
http://diarioetv.blogspot.com
http://blogdocarlosgomes.blogspot.com
http://brunahemmelnutricionista.blogspot.com
http://ojornalismoindependente.blogspot.com
http://escultordepalavras.blogspot.com
http://culturaartesurda.blogspot.com
http://logisticaetransportes.blogspot.com
http://efnopracinhas.blogspot.com
http://diariogravido.blogspot.com
http://moda-attual.blogspot.com
http://recomecarteresopolis.blogspot.com
http://composicaofashion.blogspot.com
http://benattifestaprovencal.blogspot.com
http://nosbornet.blogspot.com
http://portfoliopatriciapeccin.blogspot.com
http://gadarioclaro.blogspot.com
http://ulissesaraujos.blogspot.com
http://viagensepalavras.blogspot.com
http://sinsemad.blogspot.com
http://eebcolegioriodocampo.blogspot.com
http://ljeferson09.blogspot.com
http://torredovento.blogspot.com
http://designautomacaoeletrica.blogspot.com
http://adaomacarioadm.blogspot.com
http://cvn-cvnews.blogspot.com
http://corintoterraamada.blogspot.com
http://loginternacional.blogspot.com
http://fepoliticamg.blogspot.com
http://geogiba.blogspot.com
http://bemfeminino-mulher.blogspot.com
http://ekilibriomf.blogspot.com
http://familiaportinhonauiack.blogspot.com
http://almasurfesal.blogspot.com
http://healthandbeatiful.blogspot.com
http://visaodobrasil.blogspot.com
http://arqfigurinhas.blogspot.com
http://sageal.blogspot.com
http://filmedeelilma.blogspot.com
http://drinksebebidas.blogspot.com
http://amreparosereformas.blogspot.com
http://eupaisagem.blogspot.com
http://andarandarqueroandar.blogspot.com
http://pilatescomgiselymachado.blogspot.com
http://blognatadocastelo.blogspot.com
http://projetoartestateis.blogspot.com
http://didaskalous.blogspot.com
http://coaracimaiscultura.blogspot.com
http://milenedavid.blogspot.com
http://programareligare.blogspot.com
http://etiquetagastronomica.blogspot.com
http://pporto.blogspot.com
http://comcristonafrente.blogspot.com
http://catarropalerma.blogspot.com
http://nicolaunickilson1991.blogspot.com
http://fotodaviagem.blogspot.com
http://interfirmas.blogspot.com
http://cleoniceestela.blogspot.com
http://casadogps.blogspot.com
http://higorbom.blogspot.com
http://phelipe-cavalcante.blogspot.com
http://stylejoven.blogspot.com
http://dacruztattoo.blogspot.com
http://mangasundergounds.blogspot.com
http://meninaestiloeatitudes.blogspot.com
http://atualissimascastanhal.blogspot.com
http://edevaldopassandoalimpo.blogspot.com
http://importarsuplementos2013.blogspot.com
http://ogostodoquando.blogspot.com
http://sociologiaromero.blogspot.com
http://csjd-filosofia.blogspot.com
http://shoujossuki.blogspot.com
http://ltuengenheiros.blogspot.com
http://alebizoni.blogspot.com
http://marcoplacencio.blogspot.com
http://decatelo.blogspot.com
http://lucianamanuli.blogspot.com
http://selecaodamidia.blogspot.com
http://arteeplural.blogspot.com
http://contabilidadetrajanocamargo.blogspot.com
http://odesafiodeeducar2012.blogspot.com
http://aptovazio.blogspot.com
http://decoremundo.blogspot.com
http://neurovisaofacil.blogspot.com
http://criticaarte2015.blogspot.com
http://applicarte.blogspot.com
http://balutdecor.blogspot.com
http://imagensdesaudades.blogspot.com
http://riopreto-animal.blogspot.com
http://samisamurai.blogspot.com
http://terradaagricultura.blogspot.com
http://futebolaqui1.blogspot.com
http://cedooutarde-jm12.blogspot.com
http://familiaschwingel.blogspot.com
http://resgatesapeacu.blogspot.com
http://sementes-palavraviva.blogspot.com
http://asreceitasdogaiofa.blogspot.com
http://casaiscomidentidade.blogspot.com
http://hinarios-santo-daime.blogspot.com
http://filosofiafaesptrabalhos.blogspot.com
http://increaseyourimagination.blogspot.com
http://xciencias.blogspot.com
http://fadafama.blogspot.com
http://utilelazer.blogspot.com
http://estudasociologiaja.blogspot.com
http://vladiacorretora.blogspot.com
http://millwallfc-br.blogspot.com
http://modacanes.blogspot.com
http://opfead.blogspot.com
http://mnupenambuco.blogspot.com
http://veronicaeugenio.blogspot.com
http://alugueumamoto.blogspot.com
http://quintadiversidade.blogspot.com
http://atibaiatelecomeseguranca.blogspot.com
http://eporfalaremconexao.blogspot.com
http://padreauxilioantoniomaria.blogspot.com
http://academicapsi.blogspot.com
http://livrosevangelicosdamulhercristabaixar.blogspot.com
http://quimicaetudomais.blogspot.com
http://pimentauberabinha.blogspot.com
http://calcadacidada.blogspot.com
http://atencaoblogflutuante.blogspot.com
http://turgoiania.blogspot.com
http://wscosta.blogspot.com
http://niquelsemi-novos.blogspot.com
http://doryellsy.blogspot.com
http://eucriominhocas.blogspot.com
http://corpodusom.blogspot.com
http://controleacima.blogspot.com
http://misticfalls.blogspot.com
http://asparticipativas.blogspot.com
http://orionestofadosdesign.blogspot.com
http://costarobsons.blogspot.com
http://antoniabiblioflordiniz.blogspot.com
http://autodalusitania.blogspot.com
http://aromazenn.blogspot.com
http://diariodecampoest.blogspot.com
http://prmauricioiavg.blogspot.com
http://animais-africanos.blogspot.com
http://alexandrenegromonte.blogspot.com
http://ivoneportaldoape.blogspot.com
http://ideallesaude.blogspot.com
http://aulagalicia.blogspot.com
http://tresvalesdafranca.blogspot.com
http://adoreabelezadeserumnegro.blogspot.com
http://trabalhosdepedagogia.blogspot.com
http://arteriadelicada.blogspot.com
http://amofazeratividades.blogspot.com
http://rachelcomunidade.blogspot.com
http://valterinfoeduc.blogspot.com
http://falatorioautomotivo.blogspot.com
http://thelmolinsnoartenoar.blogspot.com
http://semedananindeua.blogspot.com
http://viajeipromundo.blogspot.com
http://nogaroaprendizagem.blogspot.com
http://sociologiaprofessorsavio.blogspot.com
http://programasesoftwares.blogspot.com
http://chegademaldade.blogspot.com
http://thequarterbackhudson.blogspot.com
http://sophronitis.blogspot.com
http://luthier-sao-paulo.blogspot.com
http://sitepr-ehistoricodinossauros.blogspot.com
http://epitafiodozaca.blogspot.com
http://centroinfantilbelavista.blogspot.com
http://ahistoriadodisco.blogspot.com
http://cientificando-com-miranda.blogspot.com
http://jgdecor.blogspot.com
http://caucaia-noticias.blogspot.com
http://walessonribeiro.blogspot.com
http://melquizedeque04.blogspot.com
http://ndalbert.blogspot.com
http://jmnarede.blogspot.com
http://pibidmatematicaunipampabage.blogspot.com
http://guiadearquitetura.blogspot.com
http://novidadecrente.blogspot.com
http://julidaluz.blogspot.com
http://aaventuradelereescrever.blogspot.com
http://mimosapessoa.blogspot.com
http://quatati.blogspot.com
http://psicologapatricialuizaprigol.blogspot.com
http://maisdoqueverao.blogspot.com
http://furabucho.blogspot.com
http://policeenforce.blogspot.com
http://coisasdapaulabe.blogspot.com
http://coachaclaudioandresuperandoobstaculos.blogspot.com
http://simuladorvgp.blogspot.com
http://pesquisadormario.blogspot.com
http://direitodadepressao.blogspot.com
http://labri-brasil.blogspot.com
http://gleudsonjunior.blogspot.com
http://comomulher.blogspot.com
http://comentarealitys.blogspot.com
http://jornaldocef07.blogspot.com
http://averdadenuacruaegostosa.blogspot.com
http://maturidadeativacenecista.blogspot.com
http://deusasoberana.blogspot.com
http://bem-criar.blogspot.com
http://carlosphran.blogspot.com
http://projuh.blogspot.com
http://novoolhartec.blogspot.com
http://cinesiomaua.blogspot.com
http://orrameodesign.blogspot.com
http://sbrreis2.blogspot.com
http://helenacorretora.blogspot.com
http://nayaramenegatti.blogspot.com
http://casabellaimoveisguaruja.blogspot.com
http://diz-mecomonasceste.blogspot.com
http://mandibulla.blogspot.com
http://10globalarte.blogspot.com
http://seupneu.blogspot.com
http://zoiayuri.blogspot.com
http://chacarajardins.blogspot.com
http://publicitariotoagliari.blogspot.com
http://intelectolivre.blogspot.com
http://claudinhomacabu.blogspot.com
http://wladimirwagner.blogspot.com
http://muzambinhoemfoco.blogspot.com
http://artesesolucoes.blogspot.com
http://acordamininu.blogspot.com
http://eadconpolovotorantim.blogspot.com
http://nutricaoecosmeticos.blogspot.com
http://revistacidadecult.blogspot.com
http://etidepchicofigueiredo.blogspot.com
http://educacomqualidade.blogspot.com
http://aparicoesdejesusmariaejoseemjacarei.blogspot.com
http://thefactorbourdain.blogspot.com
http://pautandomoda.blogspot.com
http://alexandre-infotecnologia10.blogspot.com
http://m12minas.blogspot.com
http://iinformaweb.blogspot.com
http://natysan88.blogspot.com
http://paradatemporal.blogspot.com
http://designandarquitetura.blogspot.com
http://afroditepk.blogspot.com
http://marchacontraopreconceito.blogspot.com
http://alcinosodre.blogspot.com
http://josimarbrito.blogspot.com
http://futeblogueiros.blogspot.com
http://tulioragozo.blogspot.com
http://fabiosegantin.blogspot.com
http://compactoseelepes.blogspot.com
http://africano-3g.blogspot.com
http://facaosfalar.blogspot.com
http://auditoriaserv.blogspot.com
http://dicasstardolls.blogspot.com
http://kdobolodecarne.blogspot.com
http://escolaindigenasapetyko.blogspot.com
http://desimbloglio.blogspot.com
http://latoletta.blogspot.com
http://bh-bike.blogspot.com
http://chesller.blogspot.com
http://sueliterezinharodrigues.blogspot.com
http://entretemperos.blogspot.com
http://patty-lima07.blogspot.com
http://411arqteturaifba2012.blogspot.com
http://escribadoitapocu.blogspot.com
http://sandrairaladesigner.blogspot.com
http://shiningondesign.blogspot.com
http://camisa-casual-sergio-k-reserva.blogspot.com
http://guilhermeorelha.blogspot.com
http://animalsfind.blogspot.com
http://achegue.blogspot.com
http://donnaalmacoffeehair.blogspot.com
http://verdadenossa.blogspot.com
http://amigasoldriblogspotcom.blogspot.com
http://centraldeatendimentoaocliente.blogspot.com
http://jornalismoalacarte.blogspot.com
http://magianasveias.blogspot.com
http://literaturaeteoriadaliteratura.blogspot.com
http://criarjogosfacil.blogspot.com
http://trancelimrosario.blogspot.com
http://systemcrasy.blogspot.com
http://economia-inform-intel.blogspot.com
http://marciosantostv.blogspot.com
http://arteducaoonline.blogspot.com
http://franciscoleales.blogspot.com
http://juventudedopt-rs.blogspot.com
http://semferrugem.blogspot.com
http://smctbr.blogspot.com
http://brincadeirasinterativas.blogspot.com
http://advocaciaadvogadafozdoiguacu.blogspot.com
http://psicodelicadocetrip.blogspot.com
http://emjosepatrocinio.blogspot.com
http://zenreal.blogspot.com
http://mcmvconstrucao.blogspot.com
http://diariodeumtecemenfermagem.blogspot.com
http://fdelano.blogspot.com
http://escolabosquebailique.blogspot.com
http://omodernario.blogspot.com
http://luizarmandomidiaseducacao.blogspot.com
http://bchecklist.blogspot.com
http://senhoraromanceurbano.blogspot.com
http://marcelinofaturamentomedico.blogspot.com
http://novasteoriascau.blogspot.com
http://traducao-global.blogspot.com
http://eletronicretro.blogspot.com
http://sospoodlebrasil.blogspot.com
http://renatasparapan.blogspot.com
http://blogsaparte.blogspot.com
http://pibidfisicareal.blogspot.com
http://walmorgodoi.blogspot.com
http://johnrussoinformatica.blogspot.com
http://besnp.blogspot.com
http://elucrativofazerobem.blogspot.com
http://maguilafartura.blogspot.com
http://conversaeopiniao.blogspot.com
http://limpezariomeriti.blogspot.com
http://marcelodalcom.blogspot.com
http://blogdemodaporemanoelleeesther.blogspot.com
http://ecodesignerepersonalizacao.blogspot.com
http://pensamentolivre-adri-filosofo.blogspot.com
http://horusfitness.blogspot.com
http://xfactorpt.blogspot.com
http://realidadeemmovimento.blogspot.com
http://blogamabvs.blogspot.com
http://aterapiaonline.blogspot.com
http://guildagaleria.blogspot.com
http://olhardavick.blogspot.com
http://tourfutebol.blogspot.com
http://blackpantherclube.blogspot.com
http://mulher-cagada.blogspot.com
http://mytdashrich.blogspot.com
http://ntp-musica.blogspot.com
http://estudioolldesign.blogspot.com
http://pagodefutebolebatucada.blogspot.com
http://literaturidade.blogspot.com
http://ufmacultura.blogspot.com
http://amandasoaresef.blogspot.com
http://arquiteturasdainsurreicao.blogspot.com
http://ihcarioquei.blogspot.com
http://marlydemenezes.blogspot.com
http://coracarolinacarol.blogspot.com
http://thescriptoriumtextos.blogspot.com
http://euterpedia.blogspot.com
http://pastoralmissionariadebonfim.blogspot.com
http://chocolate-e-chocolate.blogspot.com
http://alphacaes.blogspot.com
http://dinamarcamoda.blogspot.com
http://meufilhoealergicoaleite.blogspot.com
http://ricardopolaro.blogspot.com
http://aneacaminhodasindias.blogspot.com
http://bobdylantalks.blogspot.com
http://toposgrafia.blogspot.com
http://apicadadatocandira.blogspot.com
http://entrelacosebigodes.blogspot.com
http://elysinventandomoda.blogspot.com
http://insustentaveislevezas.blogspot.com
http://socioformacao.blogspot.com
http://seriandotv.blogspot.com
http://laforetjeans.blogspot.com
http://brunomonges.blogspot.com
http://i9comunica.blogspot.com
http://aruanda-encontrodeluz.blogspot.com
http://talitaranquini.blogspot.com
http://projetoafrobetizacao.blogspot.com
http://mestrecucafresca.blogspot.com
http://cantinhodareartes.blogspot.com
http://meirellesivania.blogspot.com
http://globotelecom.blogspot.com
http://centrodeensinoprofissionalizante.blogspot.com
http://mobilemarcenaria.blogspot.com
http://trocadedadosap.blogspot.com
http://lojaglamfashion.blogspot.com
http://nutrologiaelongevidade.blogspot.com
http://poesiacomalmajunto.blogspot.com
http://tccdesignufam.blogspot.com
http://pespracima.blogspot.com
http://educarecultural.blogspot.com
http://inescozzoolivares.blogspot.com
http://dcneieducacaoinfantil.blogspot.com
http://dralexandreporto.blogspot.com
http://eduatu.blogspot.com
http://jectec.blogspot.com
http://acasadacolina.blogspot.com
http://cordacordinhacordel.blogspot.com
http://eduardobaracat.blogspot.com
http://estoriasemcontos.blogspot.com
http://entrenamodajah.blogspot.com
http://cafteologico.blogspot.com
http://creisonoliveira-ultimostrabalhos.blogspot.com
http://transgenicosenfermagem.blogspot.com
http://ocristianismoemfoco.blogspot.com
http://ofarmaceuticosemph.blogspot.com
http://afundonoesporte.blogspot.com
http://imobiliariasinai.blogspot.com
http://esporteinterativolucas.blogspot.com
http://acessoparadesenvolvedor.blogspot.com
http://stingersclub.blogspot.com
http://eletronica-o.blogspot.com
http://thewalkingpharma.blogspot.com
http://izuminog.blogspot.com
http://pracarinelopes.blogspot.com
http://despachantearthurdacosta.blogspot.com
http://iedfre.blogspot.com
http://phbreda.blogspot.com
http://biologiage.blogspot.com
http://apocalipse204.blogspot.com
http://phototrapping.blogspot.com
http://marcostanaka.blogspot.com
http://guestfinancas.blogspot.com
http://ng-artesanatos.blogspot.com
http://blogadolescenteinformado.blogspot.com
http://atendimentobiografico.blogspot.com
http://blogdocarlosrob.blogspot.com
http://saulosousadesign.blogspot.com
http://socialistadasaude.blogspot.com
http://nerdmatuto.blogspot.com
http://capsreviver.blogspot.com
http://capacitacaoservidorsbc.blogspot.com
http://pensamentosquaseperfeitos.blogspot.com
http://cabojunior.blogspot.com
http://aprendendocomfacilidadeanderline.blogspot.com
http://destaknet.blogspot.com
http://tsyanne.blogspot.com
http://gauzzi.blogspot.com
http://simplesdecoracao1.blogspot.com
http://aquelenerdnervoso.blogspot.com
http://enfermagemesteticacamilagodoy.blogspot.com
http://ministerioinfantil-semeandovidas.blogspot.com
http://sintaotoque.blogspot.com
http://perigosdoiodo.blogspot.com
http://portfoliodeimoveis.blogspot.com
http://aeroportodemaringa.blogspot.com
http://valmirr100-temdetudo.blogspot.com
http://deniseregis.blogspot.com
http://psqfoco-video.blogspot.com
http://letramentosetecnologias.blogspot.com
http://palavraafiadaliteratura.blogspot.com
http://eebfreicanecablog.blogspot.com
http://thejulioplays.blogspot.com
http://recantocritico.blogspot.com
http://assessoriaticeducacionais.blogspot.com
http://ficou10.blogspot.com
http://jornalmicrofonia2.blogspot.com
http://fernandasalesinforma.blogspot.com
http://maritacaturismo.blogspot.com
http://laboratoriobiol.blogspot.com
http://revistaprova.blogspot.com
http://consultoriaplanoeplano.blogspot.com
http://umpenacozinha.blogspot.com
http://todeolhomalandragem.blogspot.com
http://unipovacca.blogspot.com
http://fbamtt.blogspot.com
http://lidernaigreja.blogspot.com
http://caraubas1.blogspot.com
http://zeliascholz.blogspot.com
http://maedaguaacessorios.blogspot.com
http://fonocynthiagomes.blogspot.com
http://buffetangolano.blogspot.com
http://eeefmsantaana.blogspot.com
http://portaldimoveis.blogspot.com
http://jesusminhapaz.blogspot.com
http://newsitacare.blogspot.com
http://lucarn.blogspot.com
http://cfutebol.blogspot.com
http://triunhas.blogspot.com
http://alfabetizaralemdoquadroegiz.blogspot.com
http://ltatualidades.blogspot.com
http://textilfazmodaamericana.blogspot.com
http://facasermelhor.blogspot.com
http://anjonalua-atelie.blogspot.com
http://evamotacerimonial.blogspot.com
http://espacodainfanciaedaadolescencia.blogspot.com
http://sofalado.blogspot.com
http://luizhonaiser.blogspot.com
http://projetosdesign3d.blogspot.com
http://abelezadecristo.blogspot.com
http://humornegativu.blogspot.com
http://lolamelnickhistoriareal.blogspot.com
http://shesko.blogspot.com
http://clara-palavraviva.blogspot.com
http://ml-milord.blogspot.com
http://blogduleitao.blogspot.com
http://arteemfamlia.blogspot.com
http://patrimoniocf.blogspot.com
http://historiasqueconteionline.blogspot.com
http://amormamaecoruja.blogspot.com
http://clubefut12deoutubro.blogspot.com
http://larimamae.blogspot.com
http://arteametro.blogspot.com
http://pousadadomirantechapadadosveadeiros8.blogspot.com
http://historianglo.blogspot.com
http://anagatopsicologa.blogspot.com
http://jamnetdigital.blogspot.com
http://selvadeanimais.blogspot.com
http://odiariodomusico.blogspot.com
http://eryscampos.blogspot.com
http://nephalasuniversomgico.blogspot.com
http://musicoiniciante.blogspot.com
http://portuguesdepressao.blogspot.com
http://sylviokosby.blogspot.com
http://foconofotojornalismo.blogspot.com
http://psicologodrg.blogspot.com
http://orishasenkises.blogspot.com
http://literaturaprofessorgustavoborges.blogspot.com
http://moduladosplanejados.blogspot.com
http://fernandotondelli.blogspot.com
http://kulinarius.blogspot.com
http://ambientetrabalholazer.blogspot.com
http://muraldetrilhasonora.blogspot.com
http://apontadordeestrelas.blogspot.com
http://ctrlcultura.blogspot.com
http://aculturadazonanortesp.blogspot.com
http://celebrationpirituba.blogspot.com
http://sendoapenasautentica.blogspot.com
http://jerondeau.blogspot.com
http://paramoreperfeicao.blogspot.com
http://ferreiragecop.blogspot.com
http://casadomosaico-edeniuza.blogspot.com
http://teatrodeformasanimadas.blogspot.com
http://vamoseligar.blogspot.com
http://negrosbrasileirosfamosos.blogspot.com
http://viagemnosaofrancisco.blogspot.com
http://blog6depaus.blogspot.com
http://crise-de-1929-335.blogspot.com
http://eduardohoornaert.blogspot.com
http://laranja-mecanizada.blogspot.com
http://ultimasnoticiasgazetavaleparaibana.blogspot.com
http://semeupumafalasse.blogspot.com
http://imprensaguaxupecountryclub.blogspot.com
http://felipesouza93fc.blogspot.com
http://soulfightersmedia.blogspot.com
http://clinicalifespfisioterapia.blogspot.com
http://gustavogm.blogspot.com
http://adonadosenadofederal.blogspot.com
http://numaznews.blogspot.com
http://etceteraomnia.blogspot.com
http://jovenseadolescentesippi.blogspot.com
http://archbrazil.blogspot.com
http://patchftsnandroidbrasil.blogspot.com
http://bloggdafama.blogspot.com
http://historiadojornalimpresso.blogspot.com
http://scardueli.blogspot.com
http://guiamariadocarmocaxias.blogspot.com
http://aguiadouradaturismo.blogspot.com
http://imaginacaogratis.blogspot.com
http://ongavcontagem.blogspot.com
http://ouniversodamoda.blogspot.com
http://fabiolunarte.blogspot.com
http://politica-na-real.blogspot.com
http://camilagodoi.blogspot.com
http://culturadaorganizacao.blogspot.com
http://enfermagemsaudecg.blogspot.com
http://gilmaronline.blogspot.com
http://cidadaniaprograma.blogspot.com
http://alunosanimados.blogspot.com
http://bytracydocesabor.blogspot.com
http://todoscontraoperadoraoi.blogspot.com
http://brazilejapan.blogspot.com
http://portfolioheloisasiqueira.blogspot.com
http://lagrimasportuacausa.blogspot.com
http://cficp.blogspot.com
http://negrojorgen.blogspot.com
http://metamotociclista.blogspot.com
http://prisma-cristinasiqueira.blogspot.com
http://universais.blogspot.com
http://mu-online10.blogspot.com
http://aprendagoranet.blogspot.com
http://acromegalica.blogspot.com
http://vistaladame.blogspot.com
http://fatoseeventos.blogspot.com
http://omanualdotecnico.blogspot.com
http://gersoninfmogi.blogspot.com
http://tomdoesporte.blogspot.com
http://espetacularanimais.blogspot.com
http://wwwtvfn.blogspot.com
http://jkdesignblog.blogspot.com
http://paperflocks.blogspot.com
http://requintedesp.blogspot.com
http://asociedademineradoraa.blogspot.com
http://pablofeitoza.blogspot.com
http://gameshelptg.blogspot.com
http://pattypinheiro.blogspot.com
http://acheidownload.blogspot.com
http://institutosouzamotta.blogspot.com
http://poesianocaminho.blogspot.com
http://elderbrito.blogspot.com
http://refletindo7.blogspot.com
http://acontecendoemroma.blogspot.com
http://nutricionistaconcurseira.blogspot.com
http://luanyviana.blogspot.com
http://janpauka.blogspot.com
http://maosdeamor.blogspot.com
http://philokalon.blogspot.com
http://aldotozzo.blogspot.com
http://yuditamashiroloveyou.blogspot.com
http://conteoutrahistoria.blogspot.com
http://inovandoamatematica.blogspot.com
http://afofurateajuda.blogspot.com
http://educacaoproibida2015.blogspot.com
http://esteticaeteoriadaarte2.blogspot.com
http://gloriaverissimo.blogspot.com
http://economiadedireita.blogspot.com
http://eliseudesign.blogspot.com
http://folhasulparaibana.blogspot.com
http://maisesportesbr.blogspot.com
http://elisangelapereira.blogspot.com
http://grupomagiluth.blogspot.com
http://wwwzildaizidoro.blogspot.com
http://capitaofernandoeconomia.blogspot.com
http://jpedrog.blogspot.com
http://tatidd.blogspot.com
http://oykosmiguel.blogspot.com
http://filosofiafae.blogspot.com
http://oranicefranco.blogspot.com
http://razaok.blogspot.com
http://redeecosolidaria.blogspot.com
http://anjoazulfabiana.blogspot.com
http://relacoesinterculturais.blogspot.com
http://consultorrogeriolemos.blogspot.com
http://saude-df-deputadodrcharles.blogspot.com
http://matemticaefsicanaatualidade.blogspot.com
http://ridicompany.blogspot.com
http://damcds2.blogspot.com
http://lidianemallmann.blogspot.com
http://daiacarpes.blogspot.com
http://spotluzeconceito.blogspot.com
http://jorgeseguro.blogspot.com
http://andrezaigarashicultural.blogspot.com
http://educrealmirian.blogspot.com
http://suellynpaesdesigneredepiladoraunisex.blogspot.com
http://refzolconsultoria.blogspot.com
http://live-embers.blogspot.com
http://novareligiosidade.blogspot.com
http://agitosnonordeste.blogspot.com
http://saulomarketing.blogspot.com
http://omundodamodaevoce.blogspot.com
http://ecologia-e-mundo.blogspot.com
http://politicadocariri.blogspot.com
http://textosedesfechos.blogspot.com
http://ibaumnews.blogspot.com
http://doispontoumesportes.blogspot.com
http://mariana-doc.blogspot.com
http://wilsonmarques1941.blogspot.com
http://caiobicalho.blogspot.com
http://operacaocegonha.blogspot.com
http://villadamoda.blogspot.com
http://gustavoscatena.blogspot.com
http://trintaaivoueu.blogspot.com
http://blogmelhorsaude.blogspot.com
http://estiloelas.blogspot.com
http://emerson-lopes.blogspot.com
http://ministeriosomeesperanca.blogspot.com
http://damianfamilia.blogspot.com
http://oseas98.blogspot.com
http://auradeumacacique.blogspot.com
http://sjfigueredo.blogspot.com
http://actioninvestimentos.blogspot.com
http://libertedesarts.blogspot.com
http://edineysantosradionoticias.blogspot.com
http://cciul.blogspot.com
http://lacuit.blogspot.com
http://maquinadepresente.blogspot.com
http://zoeconsultorimobiliario.blogspot.com
http://jorgealt.blogspot.com
http://animekidsrj.blogspot.com
http://lugarridohandmade.blogspot.com
http://pedagogiaempresarial-pucmg.blogspot.com
http://perola-pedrosa.blogspot.com
http://erhivanassessoria.blogspot.com
http://jcddiario.blogspot.com
http://aresenhaliteraria.blogspot.com
http://facillucrativo.blogspot.com
http://thiagogomesrego.blogspot.com
http://aeroflash02.blogspot.com
http://sindiservita.blogspot.com
http://historiacepae.blogspot.com
http://corpmusical.blogspot.com
http://ineshotte.blogspot.com
http://via-sport.blogspot.com
http://gostinhodeinfancia2013.blogspot.com
http://vivaofutebolfeminino.blogspot.com
http://saudexemagrecer.blogspot.com
http://clodinhadg.blogspot.com
http://carlosarte-carlosarte.blogspot.com
http://iuribarrosdefreitas.blogspot.com
http://josikirschner-emagrecendo.blogspot.com
http://blogdozesimpatia.blogspot.com
http://janainafx.blogspot.com
http://pecadodagula-indicedereceitas.blogspot.com
http://waltermotta.blogspot.com
http://betocammposbrasil.blogspot.com
http://maniasimbr.blogspot.com
http://informadordeopiniao.blogspot.com
http://arakenvaz.blogspot.com
http://gerenciamentoderotinassecretariais.blogspot.com
http://explorandoouniverso-ciencia.blogspot.com
http://jeunesseemportugues.blogspot.com
http://maisdoquedireito.blogspot.com
http://betelaltodomateus.blogspot.com
http://estudospatristicos.blogspot.com
http://algumascoisinhasdajessica.blogspot.com
http://zcadpro.blogspot.com
http://sociologiaasociologia.blogspot.com
http://caldeiraodonuno.blogspot.com
http://marceli2012.blogspot.com
http://escolalionsonline.blogspot.com
http://vlcurucacortinasepersianas.blogspot.com
http://zeusmito.blogspot.com
http://crioulanet.blogspot.com
http://gustavobizzo.blogspot.com
http://tecinposts.blogspot.com
http://oziasjornalismo.blogspot.com
http://sandrinbrunet.blogspot.com
http://ecommercelogistica.blogspot.com
http://semprefabullosa.blogspot.com
http://tarolandoumzumzum.blogspot.com
http://semanadeeducacaofisicadaurca.blogspot.com
