https://abibliaevoce.wordpress.com
https://melhordowns.wordpress.com
https://catetom79.wordpress.com
https://japaocult.wordpress.com
https://fabergeorquideas.wordpress.com
https://floydsbarrett.wordpress.com
https://denisedavinha.wordpress.com
https://marcelodefranca.wordpress.com
https://fcotarcisiodesiqueira.wordpress.com
https://simstoreblog.wordpress.com
https://emtudoavontadededeus.wordpress.com
https://sopensonaquilo.wordpress.com
https://portaldacriticabrasil.wordpress.com
https://ensinarcomalegria.wordpress.com
https://umamaenaalemanha.wordpress.com
https://blogdeliteratura2015.wordpress.com
https://cesarborissi.wordpress.com
https://historiadv.wordpress.com
https://repbidim.wordpress.com
https://martinaviegasdesign.wordpress.com
https://danjornalista.wordpress.com
https://rosepetenucci.wordpress.com
https://verenafotografia.wordpress.com
https://capacho.wordpress.com
https://sinpromc.wordpress.com
https://playnetmania.wordpress.com
https://fraternidadecharlesdefoucauld.wordpress.com
https://reinicie.wordpress.com
https://iniciacaoasrunas.wordpress.com
https://lesmaloira.wordpress.com
https://canetanerdblog.wordpress.com
https://assimcontououmberto.wordpress.com
https://aqueladeborah.wordpress.com
https://emucillo.wordpress.com
https://omundodebianca.wordpress.com
https://cafeeducativo.wordpress.com
