https://segredosdeumagueixa.wordpress.com
https://pperspectivasdiferentes.wordpress.com
https://semanickzaine.wordpress.com
https://juliacartierbresson.wordpress.com
https://cineparadisotorrents.wordpress.com
https://nitmodels.wordpress.com
https://querodialogar.wordpress.com
https://grupoengage.wordpress.com
https://xornaldebetanzos.wordpress.com
https://conselhodafloresta.wordpress.com
https://inovainfo.wordpress.com
https://blogdafabyolivadotwordpressdotcom.wordpress.com
https://antepenultimadasmoicanas.wordpress.com
https://nanosecond.wordpress.com
https://teologiareobote.wordpress.com
https://homempontocom.wordpress.com
https://apreciadordecachaca.wordpress.com
https://mariguisard.wordpress.com
https://madamecasamenteira.wordpress.com
https://fiodameada.wordpress.com
https://ifopeeducacional.wordpress.com
https://acervoorigens.wordpress.com
https://99contratos.wordpress.com
https://planoandorinhasagaz.wordpress.com
https://adolescentespedofilos.wordpress.com
https://papodegatodotcom.wordpress.com
https://buengestor.wordpress.com
https://linguagemm.wordpress.com
https://arqincorp.wordpress.com
https://antoniorodriguesespiritismo.wordpress.com
https://spingrv.wordpress.com
https://allanromulo.wordpress.com
https://deliriosdeumamokona.wordpress.com
https://meuspequenospedacos.wordpress.com
https://edilodonto.wordpress.com
https://ministeriojovenspregadores.wordpress.com
https://doutorspin.wordpress.com
https://pelosseiscontinentes.wordpress.com
https://ervasesaudesite.wordpress.com
https://pensamentoextemporaneo.wordpress.com
https://todoroqueiro.wordpress.com
https://alexandregrenfell.wordpress.com
https://cenebcf.wordpress.com
https://bemedotcom.wordpress.com
https://suavementeblog.wordpress.com
https://alchemydownloads.wordpress.com
https://covadosgigantes.wordpress.com
